<?xml version="1.0" encoding="utf-8"?>
<!DOCTYPE eagle SYSTEM "eagle.dtd">
<eagle version="6.0">
<drawing>
<settings>
<setting alwaysvectorfont="no"/>
<setting verticaltext="up"/>
</settings>
<grid distance="0.1" unitdist="inch" unit="inch" style="lines" multiple="1" display="yes" altdistance="0.01" altunitdist="inch" altunit="inch"/>
<layers>
<layer number="1" name="Top" color="4" fill="1" visible="yes" active="yes"/>
<layer number="16" name="Bottom" color="1" fill="1" visible="yes" active="yes"/>
<layer number="17" name="Pads" color="2" fill="1" visible="yes" active="yes"/>
<layer number="18" name="Vias" color="2" fill="1" visible="yes" active="yes"/>
<layer number="19" name="Unrouted" color="6" fill="1" visible="yes" active="yes"/>
<layer number="20" name="Dimension" color="15" fill="1" visible="yes" active="yes"/>
<layer number="21" name="tPlace" color="7" fill="1" visible="yes" active="yes"/>
<layer number="22" name="bPlace" color="7" fill="1" visible="yes" active="yes"/>
<layer number="23" name="tOrigins" color="15" fill="1" visible="yes" active="yes"/>
<layer number="24" name="bOrigins" color="15" fill="1" visible="yes" active="yes"/>
<layer number="25" name="tNames" color="7" fill="1" visible="yes" active="yes"/>
<layer number="26" name="bNames" color="7" fill="1" visible="yes" active="yes"/>
<layer number="27" name="tValues" color="7" fill="1" visible="yes" active="yes"/>
<layer number="28" name="bValues" color="7" fill="1" visible="yes" active="yes"/>
<layer number="29" name="tStop" color="7" fill="3" visible="no" active="yes"/>
<layer number="30" name="bStop" color="7" fill="6" visible="no" active="yes"/>
<layer number="31" name="tCream" color="7" fill="4" visible="no" active="yes"/>
<layer number="32" name="bCream" color="7" fill="5" visible="no" active="yes"/>
<layer number="33" name="tFinish" color="6" fill="3" visible="no" active="yes"/>
<layer number="34" name="bFinish" color="6" fill="6" visible="no" active="yes"/>
<layer number="35" name="tGlue" color="7" fill="4" visible="no" active="yes"/>
<layer number="36" name="bGlue" color="7" fill="5" visible="no" active="yes"/>
<layer number="37" name="tTest" color="7" fill="1" visible="no" active="yes"/>
<layer number="38" name="bTest" color="7" fill="1" visible="no" active="yes"/>
<layer number="39" name="tKeepout" color="4" fill="11" visible="yes" active="yes"/>
<layer number="40" name="bKeepout" color="1" fill="11" visible="yes" active="yes"/>
<layer number="41" name="tRestrict" color="4" fill="10" visible="yes" active="yes"/>
<layer number="42" name="bRestrict" color="1" fill="10" visible="yes" active="yes"/>
<layer number="43" name="vRestrict" color="2" fill="10" visible="yes" active="yes"/>
<layer number="44" name="Drills" color="7" fill="1" visible="no" active="yes"/>
<layer number="45" name="Holes" color="7" fill="1" visible="no" active="yes"/>
<layer number="46" name="Milling" color="3" fill="1" visible="no" active="yes"/>
<layer number="47" name="Measures" color="7" fill="1" visible="no" active="yes"/>
<layer number="48" name="Document" color="7" fill="1" visible="yes" active="yes"/>
<layer number="49" name="Reference" color="7" fill="1" visible="yes" active="yes"/>
<layer number="51" name="tDocu" color="7" fill="1" visible="yes" active="yes"/>
<layer number="52" name="bDocu" color="7" fill="1" visible="yes" active="yes"/>
<layer number="91" name="Nets" color="2" fill="1" visible="yes" active="yes"/>
<layer number="92" name="Busses" color="1" fill="1" visible="yes" active="yes"/>
<layer number="93" name="Pins" color="2" fill="1" visible="yes" active="yes"/>
<layer number="94" name="Symbols" color="4" fill="1" visible="yes" active="yes"/>
<layer number="95" name="Names" color="7" fill="1" visible="yes" active="yes"/>
<layer number="96" name="Values" color="7" fill="1" visible="yes" active="yes"/>
<layer number="97" name="Info" color="7" fill="1" visible="yes" active="yes"/>
<layer number="98" name="Guide" color="6" fill="1" visible="yes" active="yes"/>
</layers>
<library>
<packages>
</packages>
<symbols>
<symbol name="DRUMSET">
<wire x1="-7.62" y1="10.16" x2="7.62" y2="10.16" width="0.254" layer="94"/>
<wire x1="7.62" y1="10.16" x2="7.62" y2="-10.16" width="0.254" layer="94"/>
<wire x1="7.62" y1="-10.16" x2="-7.62" y2="-10.16" width="0.254" layer="94"/>
<wire x1="-7.62" y1="-10.16" x2="-7.62" y2="10.16" width="0.254" layer="94"/>
<pin name="CS" x="-12.7" y="7.62" length="middle"/>
<pin name="CLK" x="-12.7" y="2.54" length="middle"/>
<pin name="MOSI" x="-12.7" y="-2.54" length="middle"/>
<pin name="MISO" x="-12.7" y="-7.62" length="middle"/>
<pin name="VCC" x="12.7" y="7.62" length="middle" rot="R180"/>
<pin name="GND" x="12.7" y="-7.62" length="middle" rot="R180"/>
<text x="-7.62" y="11.176" size="1.778" layer="94">&gt;NAME</text>
</symbol>
<symbol name="PRO_MICRO_3.3">
<wire x1="-10.16" y1="20.32" x2="10.16" y2="20.32" width="0.254" layer="94"/>
<wire x1="10.16" y1="20.32" x2="10.16" y2="-22.86" width="0.254" layer="94"/>
<wire x1="10.16" y1="-22.86" x2="-10.16" y2="-22.86" width="0.254" layer="94"/>
<wire x1="-10.16" y1="-22.86" x2="-10.16" y2="20.32" width="0.254" layer="94"/>
<pin name="GND" x="-15.24" y="-20.32" length="middle"/>
<pin name="2" x="-15.24" y="17.78" length="middle"/>
<pin name="3*" x="-15.24" y="15.24" length="middle"/>
<pin name="4" x="-15.24" y="12.7" length="middle"/>
<pin name="5*" x="-15.24" y="10.16" length="middle"/>
<pin name="6*" x="-15.24" y="7.62" length="middle"/>
<pin name="7" x="-15.24" y="5.08" length="middle"/>
<pin name="8" x="-15.24" y="2.54" length="middle"/>
<pin name="9*" x="-15.24" y="0" length="middle"/>
<pin name="10*" x="-15.24" y="-2.54" length="middle"/>
<pin name="14" x="-15.24" y="-7.62" length="middle"/>
<pin name="15" x="-15.24" y="-10.16" length="middle"/>
<pin name="16" x="-15.24" y="-12.7" length="middle"/>
<pin name="A0" x="15.24" y="17.78" length="middle" rot="R180"/>
<pin name="A1" x="15.24" y="15.24" length="middle" rot="R180"/>
<pin name="A2" x="15.24" y="12.7" length="middle" rot="R180"/>
<pin name="A3" x="15.24" y="10.16" length="middle" rot="R180"/>
<pin name="TX0" x="15.24" y="5.08" length="middle" rot="R180"/>
<pin name="RX0" x="15.24" y="2.54" length="middle" rot="R180"/>
<pin name="VCC" x="15.24" y="-15.24" length="middle" rot="R180"/>
<pin name="RAW" x="15.24" y="-17.78" length="middle" rot="R180"/>
<pin name="RST" x="15.24" y="-20.32" length="middle" rot="R180"/>
<text x="-3.81" y="-8.382" size="1.4224" layer="95">(MISO)</text>
<text x="-3.81" y="-10.922" size="1.4224" layer="95">(CLK)</text>
<text x="-3.81" y="-13.462" size="1.4224" layer="95">(MOSI)</text>
</symbol>
</symbols>
<devicesets>
</devicesets>
</library>
</drawing>
</eagle>
